{
  "tracks": {
    "href": "https://api.spotify.com/v1/search?query=yoasobi&type=track&market=JP&locale=ja&offset=0&limit=10",
    "items": [
      {
        "album": {
          "album_type": "single",
          "artists": [
            {
              "external_urls": {
                "spotify": "https://open.spotify.com/artist/64tJ2EAv1R6UaZqc4iOCyj"
              },
              "href": "https://api.spotify.com/v1/artists/64tJ2EAv1R6UaZqc4iOCyj",
              "id": "64tJ2EAv1R6UaZqc4iOCyj",
              "name": "YOASOBI",
              "type": "artist",
              "uri": "spotify:artist:64tJ2EAv1R6UaZqc4iOCyj"
            }
          ],
          "external_urls": {
            "spotify": "https://open.spotify.com/album/7KS8ZZpgraGBazVoSeX6O4"
          },
          "href": "https://api.spotify.com/v1/albums/7KS8ZZpgraGBazVoSeX6O4",
          "id": "7KS8ZZpgraGBazVoSeX6O4",
          "images": [
            {
              "height": 640,
              "url": "https://i.scdn.co/image/ab67616d0000b273c5993ff2f059a0a5a7f6270b",
              "width": 640
            },
            {
              "height": 300,
              "url": "https://i.scdn.co/image/ab67616d00001e02c5993ff2f059a0a5a7f6270b",
              "width": 300
            },
            {
              "height": 64,
              "url": "https://i.scdn.co/image/ab67616d00004851c5993ff2f059a0a5a7f6270b",
              "width": 64
            }
          ],
          "name": "祝福",
          "release_date": "2022-10-01",
          "release_date_precision": "day",
          "total_tracks": 1,
          "type": "album",
          "uri": "spotify:album:7KS8ZZpgraGBazVoSeX6O4"
        },
        "artists": [
          {
            "external_urls": {
              "spotify": "https://open.spotify.com/artist/64tJ2EAv1R6UaZqc4iOCyj"
            },
            "href": "https://api.spotify.com/v1/artists/64tJ2EAv1R6UaZqc4iOCyj",
            "id": "64tJ2EAv1R6UaZqc4iOCyj",
            "name": "YOASOBI",
            "type": "artist",
            "uri": "spotify:artist: 64tJ2EAv1R6UaZqc4iOCyj"
          }
        ],
        "disc_number": 1,
        "duration_ms": 196235,
        "explicit": false,
        "external_ids": {
          "isrc": "JPP302200613"
        },
        "external_urls": {
          "spotify": "https: //open.spotify.com/track/7ajpbW6tBpqUI9foCtwlLw"
        },
        "href": "https://api.spotify.com/v1/tracks/7ajpbW6tBpqUI9foCtwlLw",
        "id": "7ajpbW6tBpqUI9foCtwlLw",
        "is_local": false,
        "is_playable": true,
        "name": "祝福",
        "popularity": 78,
        "preview_url": "https://p.scdn.co/mp3-preview/08debce5fa78bb0c7ee384777e66903040c32eb6?cid=56a7c2ff0fbb47d2bbad4f305d405318",
        "track_number": 1,
        "type": "track",
        "uri": "spotify:track:7ajpbW6tBpqUI9foCtwlLw"
      },
      {
        "album": {
          "album_type": "single",
          "artists": [
            {
              "external_urls": {
                "spotify": "https://open.spotify.com/artist/64tJ2EAv1R6UaZqc4iOCyj"
              },
              "href": "https://api.spotify.com/v1/artists/64tJ2EAv1R6UaZqc4iOCyj",
              "id": "64tJ2EAv1R6UaZqc4iOCyj",
              "name": "YOASOBI",
              "type": "artist",
              "uri": "spotify:artist:64tJ2EAv1R6UaZqc4iOCyj"
            }
          ],
          "external_urls": {
            "spotify": "https: //open.spotify.com/album/3GzwPyPZCyrqUTaurTaS23"
          },
          "href": "https://api.spotify.com/v1/albums/3GzwPyPZCyrqUTaurTaS23",
          "id": "3GzwPyPZCyrqUTaurTaS23",
          "images": [
            {
              "height": 640,
              "url": "https://i.scdn.co/image/ab67616d0000b273c5716278abba6a103ad13aa7",
              "width": 640
            },
            {
              "height": 300,
              "url": "https://i.scdn.co/image/ab67616d00001e02c5716278abba6a103ad13aa7",
              "width": 300
            },
            {
              "height": 64,
              "url": "https://i.scdn.co/image/ab67616d00004851c5716278abba6a103ad13aa7",
              "width": 64
            }
          ],
          "name": "夜に駆ける",
          "release_date": "2019-12-15",
          "release_date_precision": "day",
          "total_tracks": 1,
          "type": "album",
          "uri": "spotify:album:3GzwPyPZCyrqUTaurTaS23"
        },
        "artists": [
          {
            "external_urls": {
              "spotify": "https://open.spotify.com/artist/64tJ2EAv1R6UaZqc4iOCyj"
            },
            "href": "https://api.spotify.com/v1/artists/64tJ2EAv1R6UaZqc4iOCyj",
            "id": "64tJ2EAv1R6UaZqc4iOCyj",
            "name": "YOASOBI",
            "type": "artist",
            "uri": "spotify:artist: 64tJ2EAv1R6UaZqc4iOCyj"
          }
        ],
        "disc_number": 1,
        "duration_ms": 261013,
        "explicit": false,
        "external_ids": {
          "isrc": "JPP301900716"
        },
        "external_urls": {
          "spotify": "https: //open.spotify.com/track/3dPtXHP0oXQ4HCWHsOA9js"
        },
        "href": "https://api.spotify.com/v1/tracks/3dPtXHP0oXQ4HCWHsOA9js",
        "id": "3dPtXHP0oXQ4HCWHsOA9js",
        "is_local": false,
        "is_playable": true,
        "name": "夜に駆ける",
        "popularity": 76,
        "preview_url": "https://p.scdn.co/mp3-preview/5ec6d2efbf3a412f1c2a4a8b728bb2ea0653fdb1?cid=56a7c2ff0fbb47d2bbad4f305d405318",
        "track_number": 1,
        "type": "track",
        "uri": "spotify:track:3dPtXHP0oXQ4HCWHsOA9js"
      },
      {
        "album": {
          "album_type": "album",
          "artists": [
            {
              "external_urls": {
                "spotify": "https: //open.spotify.com/artist/64tJ2EAv1R6UaZqc4iOCyj"
              },
              "href": "https://api.spotify.com/v1/artists/64tJ2EAv1R6UaZqc4iOCyj",
              "id": "64tJ2EAv1R6UaZqc4iOCyj",
              "name": "YOASOBI",
              "type": "artist",
              "uri": "spotify:artist:64tJ2EAv1R6UaZqc4iOCyj"
            }
          ],
          "external_urls": {
            "spotify": "https://open.spotify.com/album/1xhO0GSoezdPJcSuNe1ySv"
          },
          "href": "https://api.spotify.com/v1/albums/1xhO0GSoezdPJcSuNe1ySv",
          "id": "1xhO0GSoezdPJcSuNe1ySv",
          "images": [
            {
              "height": 640,
              "url": "https://i.scdn.co/image/ab67616d0000b273684d81c9356531f2a456b1c1",
              "width": 640
            },
            {
              "height": 300,
              "url": "https://i.scdn.co/image/ab67616d00001e02684d81c9356531f2a456b1c1",
              "width": 300
            },
            {
              "height": 64,
              "url": "https://i.scdn.co/image/ab67616d00004851684d81c9356531f2a456b1c1",
              "width": 64
            }
          ],
          "name": "THE BOOK",
          "release_date": "2021-01-06",
          "release_date_precision": "day",
          "total_tracks": 9,
          "type": "album",
          "uri": "spotify:album: 1xhO0GSoezdPJcSuNe1ySv"
        },
        "artists": [
          {
            "external_urls": {
              "spotify": "https: //open.spotify.com/artist/64tJ2EAv1R6UaZqc4iOCyj"
            },
            "href": "https://api.spotify.com/v1/artists/64tJ2EAv1R6UaZqc4iOCyj",
            "id": "64tJ2EAv1R6UaZqc4iOCyj",
            "name": "YOASOBI",
            "type": "artist",
            "uri": "spotify:artist:64tJ2EAv1R6UaZqc4iOCyj"
          }
        ],
        "disc_number": 1,
        "duration_ms": 248026,
        "explicit": false,
        "external_ids": {
          "isrc": "JPP302000468"
        },
        "external_urls": {
          "spotify": "https://open.spotify.com/track/1zd35Y44Blc1CwwVbW3Qnk"
        },
        "href": "https://api.spotify.com/v1/tracks/1zd35Y44Blc1CwwVbW3Qnk",
        "id": "1zd35Y44Blc1CwwVbW3Qnk",
        "is_local": false,
        "is_playable": true,
        "name": "群青",
        "popularity": 75,
        "preview_url": "https://p.scdn.co/mp3-preview/0f9fc136e9151df18076e6edb79a0ec7dd3e6bd5?cid=56a7c2ff0fbb47d2bbad4f305d405318",
        "track_number": 6,
        "type": "track",
        "uri": "spotify:track:1zd35Y44Blc1CwwVbW3Qnk"
      },
      {
        "album": {
          "album_type": "album",
          "artists": [
            {
              "external_urls": {
                "spotify": "https://open.spotify.com/artist/64tJ2EAv1R6UaZqc4iOCyj"
              },
              "href": "https://api.spotify.com/v1/artists/64tJ2EAv1R6UaZqc4iOCyj",
              "id": "64tJ2EAv1R6UaZqc4iOCyj",
              "name": "YOASOBI",
              "type": "artist",
              "uri": "spotify:artist:64tJ2EAv1R6UaZqc4iOCyj"
            }
          ],
          "external_urls": {
            "spotify": "https://open.spotify.com/album/1xhO0GSoezdPJcSuNe1ySv"
          },
          "href": "https://api.spotify.com/v1/albums/1xhO0GSoezdPJcSuNe1ySv",
          "id": "1xhO0GSoezdPJcSuNe1ySv",
          "images": [
            {
              "height": 640,
              "url": "https://i.scdn.co/image/ab67616d0000b273684d81c9356531f2a456b1c1",
              "width": 640
            },
            {
              "height": 300,
              "url": "https://i.scdn.co/image/ab67616d00001e02684d81c9356531f2a456b1c1",
              "width": 300
            },
            {
              "height": 64,
              "url": "https://i.scdn.co/image/ab67616d00004851684d81c9356531f2a456b1c1",
              "width": 64
            }
          ],
          "name": "THE BOOK", 
          "release_date": "2021-01-06", 
          "release_date_precision": "day", 
          "total_tracks": 9, 
          "type": "album", 
          "uri": "spotify:album: 1xhO0GSoezdPJcSuNe1ySv"
        },
        "artists": [
          {
            "external_urls": {
              "spotify": "https: //open.spotify.com/artist/64tJ2EAv1R6UaZqc4iOCyj"
            },
            "href": "https://api.spotify.com/v1/artists/64tJ2EAv1R6UaZqc4iOCyj",
            "id": "64tJ2EAv1R6UaZqc4iOCyj",
            "name": "YOASOBI",
            "type": "artist",
            "uri": "spotify:artist:64tJ2EAv1R6UaZqc4iOCyj"
          }
        ],
        "disc_number": 1,
        "duration_ms": 258838,
        "explicit": false,
        "external_ids": {
          "isrc": "JPP301900716"
        },
        "external_urls": {
          "spotify": "https://open.spotify.com/track/6MCjmGYlw6mQVWRFVgBRvB"
        },
        "href": "https://api.spotify.com/v1/tracks/6MCjmGYlw6mQVWRFVgBRvB",
        "id": "6MCjmGYlw6mQVWRFVgBRvB",
        "is_local": false,
        "is_playable": true,
        "name": "夜に駆ける",
        "popularity": 76,
        "preview_url": "https://p.scdn.co/mp3-preview/1afee8ace64222e1ad3fb3e5c1fa1715ea074c87?cid=56a7c2ff0fbb47d2bbad4f305d405318",
        "track_number": 8,
        "type": "track",
        "uri": "spotify:track:6MCjmGYlw6mQVWRFVgBRvB"
      },
      {
        "album": {
          "album_type": "single",
          "artists": [
            {
              "external_urls": {
                "spotify": "https://open.spotify.com/artist/64tJ2EAv1R6UaZqc4iOCyj"
              },
              "href": "https://api.spotify.com/v1/artists/64tJ2EAv1R6UaZqc4iOCyj",
              "id": "64tJ2EAv1R6UaZqc4iOCyj",
              "name": "YOASOBI",
              "type": "artist",
              "uri": "spotify:artist:64tJ2EAv1R6UaZqc4iOCyj"
            }
          ],
          "external_urls": {
            "spotify": "https://open.spotify.com/album/4nLIK2uFzYUJqLAfJZYgLx"
          },
          "href": "https://api.spotify.com/v1/albums/4nLIK2uFzYUJqLAfJZYgLx",
          "id": "4nLIK2uFzYUJqLAfJZYgLx",
          "images": [
            {
              "height": 640,
              "url": "https://i.scdn.co/image/ab67616d0000b2735235b1b2b4feb3783e12a434",
              "width": 640
            },
            {
              "height": 300,
              "url": "https://i.scdn.co/image/ab67616d00001e025235b1b2b4feb3783e12a434",
              "width": 300
            },
            {
              "height": 64,
              "url": "https://i.scdn.co/image/ab67616d000048515235b1b2b4feb3783e12a434",
              "width": 64
            }
          ],
          "name": "群青",
          "release_date": "2020-09-01",
          "release_date_precision": "day",
          "total_tracks": 1,
          "type": "album",
          "uri": "spotify:album:4nLIK2uFzYUJqLAfJZYgLx"
        },
        "artists": [
          {
            "external_urls": {
              "spotify": "https://open.spotify.com/artist/64tJ2EAv1R6UaZqc4iOCyj"
            },
            "href": "https://api.spotify.com/v1/artists/64tJ2EAv1R6UaZqc4iOCyj",
            "id": "64tJ2EAv1R6UaZqc4iOCyj",
            "name": "YOASOBI",
            "type": "artist",
            "uri": "spotify:artist:64tJ2EAv1R6UaZqc4iOCyj"
          }
        ],
        "disc_number": 1,
        "duration_ms": 248444,
        "explicit": false,
        "external_ids": {
          "isrc": "JPP302000468"
        },
        "external_urls": {
          "spotify": "https://open.spotify.com/track/0T4AitQuq8IJhWBWuZwkFA"
        },
        "href": "https://api.spotify.com/v1/tracks/0T4AitQuq8IJhWBWuZwkFA",
        "id": "0T4AitQuq8IJhWBWuZwkFA",
        "is_local": false,
        "is_playable": true,
        "name": "群青",
        "popularity": 67,
        "preview_url": "https://p.scdn.co/mp3-preview/23e47bfe63cc9961e6fd9c99c397805918e59ddc?cid=56a7c2ff0fbb47d2bbad4f305d405318",
        "track_number": 1,
        "type": "track",
        "uri": "spotify:track:0T4AitQuq8IJhWBWuZwkFA"
      },
      {
        "album": {
          "album_type": "single",
          "artists": [
            {
              "external_urls": {
                "spotify": "https://open.spotify.com/artist/64tJ2EAv1R6UaZqc4iOCyj"
              },
              "href": "https://api.spotify.com/v1/artists/64tJ2EAv1R6UaZqc4iOCyj",
              "id": "64tJ2EAv1R6UaZqc4iOCyj",
              "name": "YOASOBI",
              "type": "artist",
              "uri": "spotify:artist:64tJ2EAv1R6UaZqc4iOCyj"
            }
          ],
          "external_urls": {
            "spotify": "https://open.spotify.com/album/2882DYZkYy3UOYyWOvbnnl"
          },
          "href": "https://api.spotify.com/v1/albums/2882DYZkYy3UOYyWOvbnnl",
          "id": "2882DYZkYy3UOYyWOvbnnl",
          "images": [
            {
              "height": 640,
              "url": "https://i.scdn.co/image/ab67616d0000b2737b7d90956f81e0cc3f39d0b8",
              "width": 640
            },
            {
              "height": 300,
              "url": "https://i.scdn.co/image/ab67616d00001e027b7d90956f81e0cc3f39d0b8",
              "width": 300
            },
            {
              "height": 64,
              "url": "https://i.scdn.co/image/ab67616d000048517b7d90956f81e0cc3f39d0b8",
              "width": 64
            }
          ],
          "name": "たぶん",
          "release_date": "2020-07-20",
          "release_date_precision": "day",
          "total_tracks": 1,
          "type": "album",
          "uri": "spotify:album:2882DYZkYy3UOYyWOvbnnl"
        },
        "artists": [
          {
            "external_urls": {
              "spotify": "https://open.spotify.com/artist/64tJ2EAv1R6UaZqc4iOCyj"
            },
            "href": "https://api.spotify.com/v1/artists/64tJ2EAv1R6UaZqc4iOCyj",
            "id": "64tJ2EAv1R6UaZqc4iOCyj",
            "name": "YOASOBI",
            "type": "artist",
            "uri": "spotify:artist:64tJ2EAv1R6UaZqc4iOCyj"
          }
        ],
        "disc_number": 1,
        "duration_ms": 258666,
        "explicit": false,
        "external_ids": {
          "isrc": "JPP302000323"
        },
        "external_urls": {
          "spotify": "https://open.spotify.com/track/62Lv9WcrfzJqhvYDbilJy3"
        },
        "href": "https://api.spotify.com/v1/tracks/62Lv9WcrfzJqhvYDbilJy3",
        "id": "62Lv9WcrfzJqhvYDbilJy3",
        "is_local": false,
        "is_playable": true,
        "name": "たぶん",
        "popularity": 70,
        "preview_url": "https://p.scdn.co/mp3-preview/e815b79bcecff3096815b0ae69b0fd3d33db4342?cid=56a7c2ff0fbb47d2bbad4f305d405318",
        "track_number": 1,
        "type": "track",
        "uri": "spotify:track:62Lv9WcrfzJqhvYDbilJy3"
      },
      {
        "album": {
          "album_type": "single",
          "artists": [
            {
              "external_urls": {
                "spotify": "https://open.spotify.com/artist/64tJ2EAv1R6UaZqc4iOCyj"
              },
              "href": "https://api.spotify.com/v1/artists/64tJ2EAv1R6UaZqc4iOCyj",
              "id": "64tJ2EAv1R6UaZqc4iOCyj",
              "name": "YOASOBI",
              "type": "artist",
              "uri": "spotify:artist:64tJ2EAv1R6UaZqc4iOCyj"
            }
          ],
          "external_urls": {
            "spotify": "https://open.spotify.com/album/6M4p4S5t8PuRZiq7zvMEPB"
          },
          "href": "https://api.spotify.com/v1/albums/6M4p4S5t8PuRZiq7zvMEPB",
          "id": "6M4p4S5t8PuRZiq7zvMEPB",
          "images": [
            {
              "height": 640,
              "url": "https://i.scdn.co/image/ab67616d0000b273d419ebca054d39636a6da666",
              "width": 640
            },
            {
              "height": 300,
              "url": "https://i.scdn.co/image/ab67616d00001e02d419ebca054d39636a6da666",
              "width": 300
            },
            {
              "height": 64,
              "url": "https://i.scdn.co/image/ab67616d00004851d419ebca054d39636a6da666",
              "width": 64
            }
          ],
          "name": "海のまにまに", 
          "release_date": "2022-11-18", 
          "release_date_precision": "day", 
          "total_tracks": 1, 
          "type": "album", 
          "uri": "spotify:album: 6M4p4S5t8PuRZiq7zvMEPB"
        },
        "artists": [
          {
            "external_urls": {
              "spotify": "https: //open.spotify.com/artist/64tJ2EAv1R6UaZqc4iOCyj"
            },
            "href": "https://api.spotify.com/v1/artists/64tJ2EAv1R6UaZqc4iOCyj",
            "id": "64tJ2EAv1R6UaZqc4iOCyj",
            "name": "YOASOBI",
            "type": "artist",
            "uri": "spotify:artist:64tJ2EAv1R6UaZqc4iOCyj"
          }
        ],
        "disc_number": 1,
        "duration_ms": 255918,
        "explicit": false,
        "external_ids": {
          "isrc": "JPP302200715"
        },
        "external_urls": {
          "spotify": "https://open.spotify.com/track/0loZ1KfQSLJxYR0Y7dImKN"
        },
        "href": "https://api.spotify.com/v1/tracks/0loZ1KfQSLJxYR0Y7dImKN",
        "id": "0loZ1KfQSLJxYR0Y7dImKN",
        "is_local": false,
        "is_playable": true,
        "name": "海のまにまに",
        "popularity": 69,
        "preview_url": "https://p.scdn.co/mp3-preview/2b3014df17f4f861d82dc2c6043e6c09868ebaaa?cid=56a7c2ff0fbb47d2bbad4f305d405318",
        "track_number": 1,
        "type": "track",
        "uri": "spotify:track:0loZ1KfQSLJxYR0Y7dImKN"
      },
      {
        "album": {
          "album_type": "album",
          "artists": [
            {
              "external_urls": {
                "spotify": "https: //open.spotify.com/artist/64tJ2EAv1R6UaZqc4iOCyj"
              },
              "href": "https://api.spotify.com/v1/artists/64tJ2EAv1R6UaZqc4iOCyj",
              "id": "64tJ2EAv1R6UaZqc4iOCyj",
              "name": "YOASOBI",
              "type": "artist",
              "uri": "spotify:artist:64tJ2EAv1R6UaZqc4iOCyj"
            }
          ],
          "external_urls": {
            "spotify": "https://open.spotify.com/album/1xhO0GSoezdPJcSuNe1ySv"
          },
          "href": "https://api.spotify.com/v1/albums/1xhO0GSoezdPJcSuNe1ySv",
          "id": "1xhO0GSoezdPJcSuNe1ySv",
          "images": [
            {
              "height": 640,
              "url": "https://i.scdn.co/image/ab67616d0000b273684d81c9356531f2a456b1c1",
              "width": 640
            },
            {
              "height": 300,
              "url": "https://i.scdn.co/image/ab67616d00001e02684d81c9356531f2a456b1c1",
              "width": 300
            },
            {
              "height": 64,
              "url": "https://i.scdn.co/image/ab67616d00004851684d81c9356531f2a456b1c1",
              "width": 64
            }
          ],
          "name": "THE BOOK",
          "release_date": "2021-01-06",
          "release_date_precision": "day",
          "total_tracks": 9,
          "type": "album",
          "uri": "spotify:album:1xhO0GSoezdPJcSuNe1ySv"
        },
        "artists": [
          {
            "external_urls": {
              "spotify": "https://open.spotify.com/artist/64tJ2EAv1R6UaZqc4iOCyj"
            },
            "href": "https://api.spotify.com/v1/artists/64tJ2EAv1R6UaZqc4iOCyj",
            "id": "64tJ2EAv1R6UaZqc4iOCyj",
            "name": "YOASOBI",
            "type": "artist",
            "uri": "spotify:artist:64tJ2EAv1R6UaZqc4iOCyj"
          }
        ],
        "disc_number": 1,
        "duration_ms": 256773,
        "explicit": false,
        "external_ids": {
          "isrc": "JPP302000323"
        },
        "external_urls": {
          "spotify": "https://open.spotify.com/track/398dL22bDbKbAmiOnPaq7o"
        },
        "href": "https://api.spotify.com/v1/tracks/398dL22bDbKbAmiOnPaq7o",
        "id": "398dL22bDbKbAmiOnPaq7o",
        "is_local": false,
        "is_playable": true,
        "name": "たぶん",
        "popularity": 71,
        "preview_url": "https://p.scdn.co/mp3-preview/286bdbc7bc199b179da10400975051f2f8b62e61?cid=56a7c2ff0fbb47d2bbad4f305d405318",
        "track_number": 5,
        "type": "track",
        "uri": "spotify:track:398dL22bDbKbAmiOnPaq7o"
      },
      {
        "album": {
          "album_type": "album",
          "artists": [
            {
              "external_urls": {
                "spotify": "https://open.spotify.com/artist/64tJ2EAv1R6UaZqc4iOCyj"
              },
              "href": "https://api.spotify.com/v1/artists/64tJ2EAv1R6UaZqc4iOCyj",
              "id": "64tJ2EAv1R6UaZqc4iOCyj",
              "name": "YOASOBI",
              "type": "artist",
              "uri": "spotify:artist:64tJ2EAv1R6UaZqc4iOCyj"
            }
          ],
          "external_urls": {
            "spotify": "https://open.spotify.com/album/2Ltmu8tslylv8YlBkyrcgY"
          },
          "href": "https://api.spotify.com/v1/albums/2Ltmu8tslylv8YlBkyrcgY",
          "id": "2Ltmu8tslylv8YlBkyrcgY",
          "images": [
            {
              "height": 640,
              "url": "https://i.scdn.co/image/ab67616d0000b2739c3625a413a9a79facea38c2",
              "width": 640
            },
            {
              "height": 300,
              "url": "https://i.scdn.co/image/ab67616d00001e029c3625a413a9a79facea38c2",
              "width": 300
            },
            {
              "height": 64,
              "url": "https://i.scdn.co/image/ab67616d000048519c3625a413a9a79facea38c2",
              "width": 64
            }
          ],
          "name": "THE BOOK 2",
          "release_date": "2021-12-01",
          "release_date_precision": "day",
          "total_tracks": 8,
          "type": "album",
          "uri": "spotify:album:2Ltmu8tslylv8YlBkyrcgY"
        },
        "artists": [
          {
            "external_urls": {
              "spotify": "https://open.spotify.com/artist/64tJ2EAv1R6UaZqc4iOCyj"
            },
            "href": "https://api.spotify.com/v1/artists/64tJ2EAv1R6UaZqc4iOCyj",
            "id": "64tJ2EAv1R6UaZqc4iOCyj",
            "name": "YOASOBI",
            "type": "artist",
            "uri": "spotify:artist:64tJ2EAv1R6UaZqc4iOCyj"
          }
        ],
        "disc_number": 1,
        "duration_ms": 205480,
        "explicit": false,
        "external_ids": {
          "isrc": "JPP302000760"
        },
        "external_urls": {
          "spotify": "https://open.spotify.com/track/6uhIF5J5Txaie0is2nXdxU"
        },
        "href": "https://api.spotify.com/v1/tracks/6uhIF5J5Txaie0is2nXdxU",
        "id": "6uhIF5J5Txaie0is2nXdxU",
        "is_local": false,
        "is_playable": true,
        "name": "怪物",
        "popularity": 64,
        "preview_url": "https://p.scdn.co/mp3-preview/48bb5f5205e5157fecda0b07459d1d4f57e637b0?cid=56a7c2ff0fbb47d2bbad4f305d405318",
        "track_number": 6,
        "type": "track",
        "uri": "spotify:track:6uhIF5J5Txaie0is2nXdxU"
      },
      {
        "album": {
          "album_type": "single",
          "artists": [
            {
              "external_urls": {
                "spotify": "https://open.spotify.com/artist/64tJ2EAv1R6UaZqc4iOCyj"
              },
              "href": "https://api.spotify.com/v1/artists/64tJ2EAv1R6UaZqc4iOCyj",
              "id": "64tJ2EAv1R6UaZqc4iOCyj",
              "name": "YOASOBI",
              "type": "artist",
              "uri": "spotify:artist:64tJ2EAv1R6UaZqc4iOCyj"
            }
          ],
          "external_urls": {
            "spotify": "https://open.spotify.com/album/6uq5X6zI466fOyPkzwVYTH"
          },
          "href": "https://api.spotify.com/v1/albums/6uq5X6zI466fOyPkzwVYTH",
          "id": "6uq5X6zI466fOyPkzwVYTH",
          "images": [
            {
              "height": 640,
              "url": "https://i.scdn.co/image/ab67616d0000b273bb6370163b04145ed2e87442",
              "width": 640
            },
            {
              "height": 300,
              "url": "https://i.scdn.co/image/ab67616d00001e02bb6370163b04145ed2e87442",
              "width": 300
            },
            {
              "height": 64,
              "url": "https://i.scdn.co/image/ab67616d00004851bb6370163b04145ed2e87442",
              "width": 64
            }
          ],
          "name": "ハルカ", 
          "release_date": "2020-12-18", 
          "release_date_precision": "day", 
          "total_tracks": 1, 
          "type": "album", 
          "uri": "spotify:album: 6uq5X6zI466fOyPkzwVYTH"
        },
        "artists": [
          {
            "external_urls": {
              "spotify": "https: //open.spotify.com/artist/64tJ2EAv1R6UaZqc4iOCyj"
            },
            "href": "https://api.spotify.com/v1/artists/64tJ2EAv1R6UaZqc4iOCyj",
            "id": "64tJ2EAv1R6UaZqc4iOCyj",
            "name": "YOASOBI",
            "type": "artist",
            "uri": "spotify:artist:64tJ2EAv1R6UaZqc4iOCyj"
          }
        ],
        "disc_number": 1,
        "duration_ms": 243613,
        "explicit": false,
        "external_ids": {
          "isrc": "JPP302000676"
        },
        "external_urls": {
          "spotify": "https://open.spotify.com/track/6wKmxUeMJAoz2GpMrw95z5"
        },
        "href": "https://api.spotify.com/v1/tracks/6wKmxUeMJAoz2GpMrw95z5",
        "id": "6wKmxUeMJAoz2GpMrw95z5",
        "is_local": false,
        "is_playable": true,
        "name": "ハルカ",
        "popularity": 62,
        "preview_url": "https://p.scdn.co/mp3-preview/42734dd38dad70d9ec82b8e5c5fb614e84226ef2?cid=56a7c2ff0fbb47d2bbad4f305d405318",
        "track_number": 1,
        "type": "track",
        "uri": "spotify:track:6wKmxUeMJAoz2GpMrw95z5"
      }
    ],
    "limit": 10,
    "next": "https://api.spotify.com/v1/search?query=yoasobi&type=track&market=JP&locale=ja&offset=10&limit=10",
    "offset": 0,
    "previous": "None",
    "total": 1658
  }
}